{
    "categories": [
        {
            "category": "Games",
            "rule": "Other Games",
            "blocksCount": 0,
            "userCount": 948,
            "percentOfUsers": 6.26,
            "traffic": 4117.89,
            "trafficPercent": 0.16
        },
        {
            "category": "Games",
            "rule": "Pokemon Go",
            "blocksCount": 0,
            "userCount": 28,
            "percentOfUsers": 0.19,
            "traffic": 1138.62,
            "trafficPercent": 0.05
        },
        {
            "category": "Games",
            "rule": "Mobile Games",
            "blocksCount": 0,
            "userCount": 2,
            "percentOfUsers": 0.01,
            "traffic": 154.51,
            "trafficPercent": 0.01
        },
        {
            "category": "Games",
            "rule": "Video Games",
            "blocksCount": 0,
            "userCount": 97,
            "percentOfUsers": 0.64,
            "traffic": 98.85,
            "trafficPercent": 0.01
        }
    ],
    "totalTraffic": 2530176.05
}
